V201235,V201236,V201237,V201238,V201239,V201240,V201241,V201242,V201243,V201244
3,5,5,3,5,5,5,5,5,5
1,2,3,3,4,5,5,5,5,5
2,4,2,1,4,3,3,4,3,3
2,4,2,2,2,1,1,2,1,2
1,4,4,3,5,5,5,5,4,5
2,3,4,2,5,5,5,5,4,5
1,2,2,1,5,5,5,5,5,5
1,4,4,1,5,4,5,5,4,4
1,3,2,1,5,5,5,5,5,5
2,4,4,1,5,5,5,5,5,5
2,2,2,2,4,4,5,5,3,5
1,3,2,1,5,5,5,5,5,5
1,2,3,2,5,5,5,5,5,5
1,3,4,1,5,4,5,5,5,4
1,2,5,2,5,5,5,5,5,5
1,2,1,1,3,3,3,3,3,3
1,2,2,3,3,3,4,3,3,3
2,4,2,2,3,4,3,3,3,3
2,3,2,3,1,1,1,1,1,1
1,2,2,1,3,3,2,3,2,3
2,2,2,2,3,2,3,2,3,3
